module gitlab.com/zcash/zcashd_exporter

go 1.13

require (
	github.com/prometheus/client_golang v1.4.0
	github.com/sirupsen/logrus v1.4.2
	github.com/ybbus/jsonrpc v2.1.2+incompatible
	gopkg.in/alecthomas/kingpin.v2 v2.2.6
)
